"1","蒙着眼睛的旅行者","sdf","sdfas","sdaf","/images/upload/20160830/1472514690337666.jpg","sdf","134","2016-08-30 07:51:32","2016-08-01","ds","132","0"
"2","北京折叠","ssss","郝景芳","ss","/images/upload/20160830/1472514706763214.jpg","2016 年雨果奖最佳短中篇小说。
日渐拥挤的未来北京，昼夜之间三个世界交替折叠，轮流苏醒。人们被阶级与出身分隔其间，在同一个舞台上演出无穷循环的城市戏剧。
老刀，年近五十，垃圾工，单身父亲。为了女儿的未来，开始了他一天之中穿越三个世界的冒险。
《北京折叠》中设定了三个互相折叠的世界，隐喻上流、中产和底层三个阶层。整个城市尺度的空间和时间双重折叠意象恢弘，映射出当代社会中人们对于阶层割裂趋势的深切焦虑。作者郝景芳在北京生活多年，笔下未来城市的种种细节平实而有质感，让这个探讨后现代社会问题的故事兼具强烈的现实主义和本土意识，是当代中国科幻的最佳范本之一。
所获奖项：
2016 年雨果奖最佳短中篇小说
第五届全球华语科幻星云奖入围
首届中国科幻坐标奖短篇类冠军","23","2016-08-30 07:51:47","2009-01-00","ds","3","0"
"3","孤独深处","江苏凤凰文艺出版社"," 郝景芳 ","（第二版）","/images/upload/20160830/1472558806147403.jpg","《孤独深处》收录了郝景芳在2010年至2016年间发表的一些科幻小说，从未出版过，此次是初次集结成册。《孤独深处》首次收录郝景芳的雨果奖提名作品《北京折叠》。书名也是源于作者对科幻小说的感觉。科幻小说构想一个可能性的世界，人站在这个世界的边缘，最容易感觉到出世和异化。出离世界的感觉是最孤独的孤独。
对于作者来说，《孤独深处》是她在写作上的一种坚持，作者表示写作是生活最重要的快乐源泉，也是孤独深处最重要的情感力量。
中国科幻作家获得国外奖项，是中国科幻小说更多走向世界的一个标志。
——雨果奖作家刘慈欣谈郝景芳
在后“三 体”时代日渐浮嚣的中国科幻中，景芳的作品并不大张旗鼓吆喝，但总是吸引你去聆听。摇曳多姿、细腻唯美的感性笔触下，有着对世界的冷峻洞察和理性思索，而更深处是一种坚定的力量感，这并非单纯是科技发明的力量，而是精神追求自身的完满、充沛与坚韧。","35","2016-08-30 20:31:53","2016-06-01",,"3","0"
"4","冬日笔记","人民文学出版社"," [美] 保罗·奥斯特 ","人民文学出版社","/images/upload/20160830/1472563796977348.jpg","一扇门关上了。
另一扇门打开。
你已经进入了生命的冬天。
2011年1月3日，大雪纷飞，保罗•奥斯特坐在桌前，写下《冬日笔记》的第一行字，此时距离他六十四岁生日还有一个月，距离他第一部作品《孤独及其所创造的》则已三十年。
这是保罗•奥斯特对自己一生的剖白。他以第二人称的方式、从局外人的角度来审视自己与他人的关系，进而审视自我、解剖自我；他以一种近乎随意而散乱的逻辑，组织起六十多年的人生碎片，描述了从童年到晚年之间的身体意识、感受到的快乐和痛苦、他与父母的牵绊以及对父母的探索与迷思，记录下从少年时代的性觉醒到中年深沉的婚姻之爱，以及他对食物、睡眠的思索和1987年他以作家身份开启的人生新旅程，而读者总能从字里行间找到他小说创作时的灵感来源以及原型。
一部热情洋溢的回忆录……充满沉思默想，哀婉动人……一本优美的深刻之作。
——《华盛顿邮报》
生动地记录下...","35","2016-08-30 21:30:43","0000-00-00",,"3","0"
